iladata3.vcd
$date
        2023-Jun-14 11:46:45
$end
$version
        Vivado v2022.2 (64-bit)
$end
$timescale
        1ps
$end
$scope module dut $end
$var reg 2 " u_ila_0_wcs [1:0] $end
$var reg 2 $ u_ila_0_rcs [1:0] $end
$var reg 33 & top_i/BIST_0_axi_ARADDR [32:0] $end
$var reg 1 G top_i/BIST_0/inst/axi_arready $end
$var reg 1 H u_ila_0_axi_arvalid $end
$var reg 1 I top_i/BIST_0/inst/axi_awready $end
$var reg 1 J top_i/BIST_0/inst/axi_awvalid $end
$var reg 1 K top_i/BIST_0/inst/axi_bready $end
$var reg 1 L top_i/BIST_0/inst/axi_bvalid $end
$var reg 1 M u_ila_0_axi_rlast $end
$var reg 1 N top_i/BIST_0/inst/axi_rready $end
$var reg 1 O u_ila_0_axi_rvalid $end
$var reg 1 P u_ila_0_axi_wlast $end
$var reg 1 Q top_i/BIST_0/inst/axi_wready $end
$var reg 1 R u_ila_0_axi_wvalid $end
$var reg 1 S clk_450_OBUF $end
$var reg 1 T _TRIGGER $end
$var reg 1 U _WINDOW $end
$var reg 1 V _GAP $end
$upscope $end
$enddefinitions $end
#0
$dumpvars
b0 "
b10 $
b0 &
1G
0H
1I
0J
0K
0L
0M
1N
0O
0P
1Q
0R
0S
0T
1U
0V
$end
#9
1O
#24
1M
#25
b1 $
1H
0M
0N
0O
#26
b10 $
0H
1N
#27
1O
#42
1M
#43
b1 $
1H
0M
0N
0O
#44
b10 $
0H
1N
1O
#59
1M
#60
b1 $
1H
0M
0N
0O
#61
b10 $
0H
1N
#79
1O
#94
1M
#95
b1 $
1H
0M
0N
0O
#96
b10 $
0H
1N
#98
1O
#113
1M
#114
b1 $
1H
0M
0N
0O
#115
b10 $
0H
1N
1O
#130
1M
#131
b1 $
1H
0M
0N
0O
#132
b10 $
0H
1N
#150
1O
#165
1M
#166
b1 $
1H
0M
0N
0O
#167
b10 $
0H
1N
#169
1O
#184
1M
#185
b1 $
1H
0M
0N
0O
#186
b10 $
0H
1N
1O
#201
1M
#202
b1 $
1H
0M
0N
0O
#203
b10 $
0H
1N
#353
1O
#354
0O
#355
1O
#369
1M
#370
b1 $
1H
0M
0N
#371
b10 $
0H
1N
#386
1M
#387
b1 $
1H
0M
0N
#388
b10 $
0H
1N
#403
1M
#404
b1 $
1H
0M
0N
0O
#405
b10 $
0H
1N
#425
1O
#440
1M
#441
b1 $
1H
0M
0N
#442
b10 $
0H
1N
#457
1M
#458
b1 $
1H
0M
0N
#459
b10 $
0H
1N
#474
1M
#475
b1 $
1H
0M
0N
0O
#476
b10 $
0H
1N
#495
1O
#510
1M
#511
b1 $
1H
0M
0N
0O
1T
#512
b10 $
0H
1N
#513
1O
#528
1M
#529
b1 $
1H
0M
0N
0O
#530
b10 $
0H
1N
1O
#545
1M
#546
b1 $
1H
0M
0N
0O
#547
b10 $
0H
1N
#565
1O
#580
1M
#581
b1 $
1H
0M
0N
0O
#582
b10 $
0H
1N
#584
1O
#599
1M
#600
b1 $
1H
0M
0N
0O
#601
b10 $
0H
1N
1O
#616
1M
#617
b1 $
1H
0M
0N
0O
#618
b10 $
0H
1N
#636
1O
#651
1M
#652
b1 $
1H
0M
0N
0O
#653
b10 $
0H
1N
#655
1O
#670
1M
#671
b1 $
1H
0M
0N
#672
b10 $
0H
1N
#687
1M
#688
b1 $
1H
0M
0N
0O
#689
b10 $
0H
1N
#707
1O
#722
1M
#723
b1 $
1H
0M
0N
0O
#724
b10 $
0H
1N
#725
1O
#740
1M
#741
b1 $
1H
0M
0N
0O
#742
b10 $
0H
1N
1O
#757
1M
#758
b1 $
1H
0M
0N
0O
#759
b10 $
0H
1N
#777
1O
#792
1M
#793
b1 $
1H
0M
0N
0O
#794
b10 $
0H
1N
#796
1O
#811
1M
#812
b1 $
1H
0M
0N
0O
#813
b10 $
0H
1N
1O
#828
1M
#829
b1 $
1H
0M
0N
0O
#830
b10 $
0H
1N
#847
1O
#862
1M
#863
b1 $
1H
0M
0N
0O
#864
b10 $
0H
1N
#867
1O
#882
1M
#883
b1 $
1H
0M
0N
0O
#884
b10 $
0H
1N
1O
#899
1M
#900
b1 $
1H
0M
0N
0O
#901
b10 $
0H
1N
#918
1O
#933
1M
#934
b1 $
1H
0M
0N
0O
#935
b10 $
0H
1N
#937
1O
#952
1M
#953
b1 $
1H
0M
0N
0O
#954
b10 $
0H
1N
1O
#969
1M
#970
b1 $
1H
0M
0N
0O
#971
b10 $
0H
1N
#989
1O
#1004
1M
#1005
b1 $
1H
0M
0N
0O
#1006
b10 $
0H
1N
#1007
1O
#1022
1M
#1023
b1 $
1H
0M
0N
0O
