iladata2.vcd
$date
        2023-Jun-14 11:46:28
$end
$version
        Vivado v2022.2 (64-bit)
$end
$timescale
        1ps
$end
$scope module dut $end
$var reg 2 " u_ila_0_wcs [1:0] $end
$var reg 2 $ u_ila_0_rcs [1:0] $end
$var reg 33 & top_i/BIST_0_axi_ARADDR [32:0] $end
$var reg 1 G top_i/BIST_0/inst/axi_arready $end
$var reg 1 H u_ila_0_axi_arvalid $end
$var reg 1 I top_i/BIST_0/inst/axi_awready $end
$var reg 1 J top_i/BIST_0/inst/axi_awvalid $end
$var reg 1 K top_i/BIST_0/inst/axi_bready $end
$var reg 1 L top_i/BIST_0/inst/axi_bvalid $end
$var reg 1 M u_ila_0_axi_rlast $end
$var reg 1 N top_i/BIST_0/inst/axi_rready $end
$var reg 1 O u_ila_0_axi_rvalid $end
$var reg 1 P u_ila_0_axi_wlast $end
$var reg 1 Q top_i/BIST_0/inst/axi_wready $end
$var reg 1 R u_ila_0_axi_wvalid $end
$var reg 1 S clk_450_OBUF $end
$var reg 1 T _TRIGGER $end
$var reg 1 U _WINDOW $end
$var reg 1 V _GAP $end
$upscope $end
$enddefinitions $end
#0
$dumpvars
b0 "
b10 $
b0 &
1G
0H
1I
0J
0K
0L
0M
1N
0O
0P
1Q
0R
0S
0T
1U
0V
$end
#1
1O
#16
1M
#17
b1 $
1H
0M
0N
0O
#18
b10 $
0H
1N
#53
1O
#68
1M
#69
b1 $
1H
0M
0N
0O
#70
b10 $
0H
1N
#72
1O
#87
1M
#88
b1 $
1H
0M
0N
0O
#89
b10 $
0H
1N
#123
1O
#138
1M
#139
b1 $
1H
0M
0N
0O
#140
b10 $
0H
1N
#142
1O
#157
1M
#158
b1 $
1H
0M
0N
0O
#159
b10 $
0H
1N
#193
1O
#208
1M
#209
b1 $
1H
0M
0N
0O
#210
b10 $
0H
1N
#213
1O
#228
1M
#229
b1 $
1H
0M
0N
0O
#230
b10 $
0H
1N
#264
1O
#279
1M
#280
b1 $
1H
0M
0N
0O
#281
b10 $
0H
1N
#283
1O
#298
1M
#299
b1 $
1H
0M
0N
0O
#300
b10 $
0H
1N
#335
1O
#350
1M
#351
b1 $
1H
0M
0N
0O
#352
b10 $
0H
1N
#354
1O
#369
1M
#370
b1 $
1H
0M
0N
0O
#371
b10 $
0H
1N
#406
1O
#421
1M
#422
b1 $
1H
0M
0N
0O
#423
b10 $
0H
1N
#424
1O
#439
1M
#440
b1 $
1H
0M
0N
0O
#441
b10 $
0H
1N
#476
1O
#491
1M
#492
b1 $
1H
0M
0N
0O
#493
b10 $
0H
1N
#495
1O
#510
1M
#511
b1 $
1H
0M
0N
0O
1T
#512
b10 $
0H
1N
#678
1O
#679
0O
#680
1O
#694
1M
#695
b1 $
1H
0M
0N
#696
b10 $
0H
1N
#711
1M
#712
b1 $
1H
0M
0N
0O
#713
b10 $
0H
1N
#749
1O
#764
1M
#765
b1 $
1H
0M
0N
0O
#766
b10 $
0H
1N
#767
1O
#782
1M
#783
b1 $
1H
0M
0N
0O
#784
b10 $
0H
1N
#820
1O
#835
1M
#836
b1 $
1H
0M
0N
0O
#837
b10 $
0H
1N
1O
#852
1M
#853
b1 $
1H
0M
0N
0O
#854
b10 $
0H
1N
#891
1O
#906
1M
#907
b1 $
1H
0M
0N
0O
#908
b10 $
0H
1N
1O
#923
1M
#924
b1 $
1H
0M
0N
0O
#925
b10 $
0H
1N
#962
1O
#977
1M
#978
b1 $
1H
0M
0N
#979
b10 $
0H
1N
#994
1M
#995
b1 $
1H
0M
0N
0O
#996
b10 $
0H
1N
