iladata.vcd
$date
        2023-Jun-14 11:44:23
$end
$version
        Vivado v2022.2 (64-bit)
$end
$timescale
        1ps
$end
$scope module dut $end
$var reg 2 " u_ila_0_wcs [1:0] $end
$var reg 2 $ u_ila_0_rcs [1:0] $end
$var reg 33 & top_i/BIST_0_axi_ARADDR [32:0] $end
$var reg 1 G top_i/BIST_0/inst/axi_arready $end
$var reg 1 H u_ila_0_axi_arvalid $end
$var reg 1 I top_i/BIST_0/inst/axi_awready $end
$var reg 1 J top_i/BIST_0/inst/axi_awvalid $end
$var reg 1 K top_i/BIST_0/inst/axi_bready $end
$var reg 1 L top_i/BIST_0/inst/axi_bvalid $end
$var reg 1 M u_ila_0_axi_rlast $end
$var reg 1 N top_i/BIST_0/inst/axi_rready $end
$var reg 1 O u_ila_0_axi_rvalid $end
$var reg 1 P u_ila_0_axi_wlast $end
$var reg 1 Q top_i/BIST_0/inst/axi_wready $end
$var reg 1 R u_ila_0_axi_wvalid $end
$var reg 1 S clk_450_OBUF $end
$var reg 1 T _TRIGGER $end
$var reg 1 U _WINDOW $end
$var reg 1 V _GAP $end
$upscope $end
$enddefinitions $end
#0
$dumpvars
b0 "
b10 $
b0 &
1G
0H
1I
0J
0K
0L
0M
1N
0O
0P
1Q
0R
0S
0T
1U
0V
$end
#2
1O
#17
1M
#18
b1 $
1H
0M
0N
0O
#19
b10 $
0H
1N
#72
1O
#87
1M
#88
b1 $
1H
0M
0N
0O
#89
b10 $
0H
1N
#142
1O
#157
1M
#158
b1 $
1H
0M
0N
0O
#159
b10 $
0H
1N
#213
1O
#228
1M
#229
b1 $
1H
0M
0N
0O
#230
b10 $
0H
1N
#283
1O
#298
1M
#299
b1 $
1H
0M
0N
0O
#300
b10 $
0H
1N
#354
1O
#369
1M
#370
b1 $
1H
0M
0N
0O
#371
b10 $
0H
1N
#424
1O
#439
1M
#440
b1 $
1H
0M
0N
0O
#441
b10 $
0H
1N
#495
1O
#510
1M
#511
b1 $
1H
0M
0N
0O
1T
#512
b10 $
0H
1N
#566
1O
#581
1M
#582
b1 $
1H
0M
0N
0O
#583
b10 $
0H
1N
#636
1O
#651
1M
#652
b1 $
1H
0M
0N
0O
#653
b10 $
0H
1N
#707
1O
#722
1M
#723
b1 $
1H
0M
0N
0O
#724
b10 $
0H
1N
#910
1O
#911
0O
#912
1O
#926
1M
#927
b1 $
1H
0M
0N
0O
#928
b10 $
0H
1N
#982
1O
#997
1M
#998
b1 $
1H
0M
0N
0O
#999
b10 $
0H
1N
